//Required JSON Format



[{
  "id":1,"text":"Root node","children":[
    {"id":2,"text":"Child node 1"},
    {"id":3,"text":"Child node 2"}
  ]
},
{
  "id":4,"text":"Root node 2","children":[
    {"id":5,"text":"Child node 1"},
    {"id":6,"text":"Child node 2"}
  ]
}]